Chapter 29 Introduction to Data Manipulation | EDAV Fall 2021 Mon/Wed Community Contributions
…
29.1.3 Pick observations with filter()

R provides standard suites: <, >=, <=, !=, ==, %in% for you to apply conditions on rows

vehicles %>% filter(year>1999)

## # A tibble: 16,649 × 12
##       id make  model  year class   trans   drive     cyl displ fuel    hwy   cty
##    <dbl> <chr> <chr> <dbl> <chr>   <chr>   <chr>   <dbl> <dbl> <chr> <dbl> <dbl>
##  1 16573 Acura 3.2CL  2001 Compac… Automa… Front-…     6   3.2 Prem…    27    17
##  2 17489 Acura 3.2CL  2002 Compac… Automa… Front-…     6   3.2 Prem…    27    17
##  3 18458 Acura 3.2CL  2003 Compac… Manual… Front-…     6   3.2 Prem…    26    17
##  4 18459 Acura 3.2CL  2003 Compac… Automa… Front-…     6   3.2 Prem…    27    17
##  5 15871 Acura 3.2TL  2000 Midsiz… Automa… Front-…     6   3.2 Prem…    27    17
##  6 16734 Acura 3.2TL  2001 Midsiz… Automa… Front-…     6   3.2 Prem…    27    17
##  7 17664 Acura 3.2TL  2002 Midsiz… Automa… Front-…     6   3.2 Prem…    27    17
##  8 18629 Acura 3.2TL  2003 Midsiz… Automa… Front-…     6   3.2 Prem…    27    17
##  9 15872 Acura 3.5RL  2000 Midsiz… Automa… Front-…     6   3.5 Prem…    22    16
## 10 16735 Acura 3.5RL  2001 Midsiz… Automa… Front-…     6   3.5 Prem…    22    16
## # … with 16,639 more rows

29.1.4 Reorder rows with arrange()

vehicles %>% arrange(year,class,trans)

## # A tibble: 33,442 × 12
##       id make      model   year class  trans drive   cyl displ fuel    hwy   cty
##    <dbl> <chr>     <chr>  <dbl> <chr>  <chr> <chr> <dbl> <dbl> <chr> <dbl> <dbl>
##  1 27049 Buick     Elect…  1984 Large… Auto… 2-Wh…     6   4.1 Regu…    19    14
##  2 27050 Buick     Elect…  1984 Large… Auto… 2-Wh…     8   5   Regu…    20    14
##  3 27051 Buick     Elect…  1984 Large… Auto… 2-Wh…     8   5.7 Dies…    26    18
##  4 27057 Cadillac  Broug…  1984 Large… Auto… Rear…     8   4.1 Regu…    19    14
##  5 27058 Cadillac  Broug…  1984 Large… Auto… Rear…     8   5.7 Dies…    26    18
##  6 28105 Cadillac  Broug…  1984 Large… Auto… Rear…     8   4.1 Regu…    19    14
##  7 28106 Cadillac  Fleet…  1984 Large… Auto… Rear…     6   4.3 Dies…    31    21
##  8 28225 Chevrolet S10 P…  1984 Small… Auto… 2-Wh…     4   2   Regu…    24    18
##  9 27219 Dodge     Ram 5…  1984 Small… Auto… 2-Wh…     4   2   Regu…    21    20
## 10 27220 Dodge     Ram 5…  1984 Small… Auto… 2-Wh…     4   2   Regu…    20    18
## # … with 33,432 more rows

29.1.5 Create new variables using mutate()

vehicles %>% mutate(cyl_2 = cyl*2)

## # A tibble: 33,442 × 13
##       id make  model  year class trans drive   cyl displ fuel    hwy   cty cyl_2
##    <dbl> <chr> <chr> <dbl> <chr> <chr> <chr> <dbl> <dbl> <chr> <dbl> <dbl> <dbl>
##  1 13309 Acura 2.2C…  1997 Subc… Auto… Fron…     4   2.2 Regu…    26    20     8
##  2 13310 Acura 2.2C…  1997 Subc… Manu… Fron…     4   2.2 Regu…    28    22     8
##  3 13311 Acura 2.2C…  1997 Subc… Auto… Fron…     6   3   Regu…    26    18    12
##  4 14038 Acura 2.3C…  1998 Subc… Auto… Fron…     4   2.3 Regu…    27    19     8
##  5 14039 Acura 2.3C…  1998 Subc… Manu… Fron…     4   2.3 Regu…    29    21     8
##  6 14040 Acura 2.3C…  1998 Subc… Auto… Fron…     6   3   Regu…    26    17    12
##  7 14834 Acura 2.3C…  1999 Subc… Auto… Fron…     4   2.3 Regu…    27    20     8
##  8 14835 Acura 2.3C…  1999 Subc… Manu… Fron…     4   2.3 Regu…    29    21     8
##  9 14836 Acura 2.3C…  1999 Subc… Auto… Fron…     6   3   Regu…    26    17    12
## 10 11789 Acura 2.5TL  1995 Comp… Auto… Fron…     5   2.5 Prem…    23    18    10
## # … with 33,432 more rows
…
first(x): the first row

nth(x,1): the nth row

last(): the last row

n(): count

n_distinct(x): count distinct

sum(): sum

vehicles %>% group_by(class, fuel) %>% summarize(mean_cty =mean(cty, na.rm = TRUE))

## # A tibble: 151 × 3
## # Groups:   class [34]
##    class        fuel                       mean_cty
##    <chr>        <chr>                         <dbl>
##  1 Compact Cars CNG                            24.5
##  2 Compact Cars Diesel                         29.2
##  3 Compact Cars Electricity                   110  
##  4 Compact Cars Gasoline or E85                21.9
##  5 Compact Cars Midgrade                       16  
##  6 Compact Cars Premium                        17.6
##  7 Compact Cars Premium Gas or Electricity     35  
##  8 Compact Cars Premium or E85                 17.2
##  9 Compact Cars Regular                        21.1
## 10 Large Cars   CNG                            13.6
## # … with 141 more rows
…
