Chapter 61 MapReduce Concept & Comparision With R | EDAV Fall 2021 Mon/Wed Community Contributions
…
## SerialExecution with Spam Dataset in seconds -  0.9553623

cat("\n")

cat("Parallel Executoon with Spam Dataset in seconds -",parallelTime_spam)

## Parallel Executoon with Spam Dataset in seconds - 0.1728241

Duplicating rows in spam Dataset 100 times

df_duplicateSpam <- df_spam %>% slice(rep(1:n(), each = 100))
df_duplicateSpam

## # A tibble: 557,200 × 2
##    label text                                                                   
##    <chr> <chr>                                                                  
##  1 ham   Go until jurong point, crazy.. Available only in bugis n great world l…
##  2 ham   Go until jurong point, crazy.. Available only in bugis n great world l…
##  3 ham   Go until jurong point, crazy.. Available only in bugis n great world l…
##  4 ham   Go until jurong point, crazy.. Available only in bugis n great world l…
##  5 ham   Go until jurong point, crazy.. Available only in bugis n great world l…
##  6 ham   Go until jurong point, crazy.. Available only in bugis n great world l…
##  7 ham   Go until jurong point, crazy.. Available only in bugis n great world l…
##  8 ham   Go until jurong point, crazy.. Available only in bugis n great world l…
##  9 ham   Go until jurong point, crazy.. Available only in bugis n great world l…
## 10 ham   Go until jurong point, crazy.. Available only in bugis n great world l…
## # … with 557,190 more rows
…
## SerialExecution with Yelp Dataset in seconds -  11.10713

cat("\n")

cat("ParallelExecution with Spam Dataset in seconds - ", parallelTime_Yelp)

## ParallelExecution with Spam Dataset in seconds -  1.324284

Duplicating rows in Yelp Dataset 20 times

df_YelpDuplicate <- df_Yelp %>% slice(rep(1:n(), each = 20))
df_YelpDuplicate

## # A tibble: 890,600 × 3
##    text                                                          stars sentiment
##    <chr>                                                         <dbl>     <dbl>
##  1 Total bill for this horrible service? Over $8Gs. These crook…     1         0
##  2 Total bill for this horrible service? Over $8Gs. These crook…     1         0
##  3 Total bill for this horrible service? Over $8Gs. These crook…     1         0
##  4 Total bill for this horrible service? Over $8Gs. These crook…     1         0
##  5 Total bill for this horrible service? Over $8Gs. These crook…     1         0
##  6 Total bill for this horrible service? Over $8Gs. These crook…     1         0
##  7 Total bill for this horrible service? Over $8Gs. These crook…     1         0
##  8 Total bill for this horrible service? Over $8Gs. These crook…     1         0
##  9 Total bill for this horrible service? Over $8Gs. These crook…     1         0
## 10 Total bill for this horrible service? Over $8Gs. These crook…     1         0
## # … with 890,590 more rows
…
